560718 544864 452
227340 298583 443
942559 837011 525
369095 844663 525
409136 147371 443
342890 891049 525
485207 849094 525
857038 230517 525
18536 726793 509
318948 305441 384
890041 945146 507
77500 576697 470
79884 615019 470
86383 762265 509
490288 55418 449
950228 202531 525
399521 81019 443
117093 293832 443
801330 32700 509
188920 272628 443
170262 812465 509
935780 629761 525
385713 884342 525
620282 87556 470
646119 59272 509
665241 382108 509
209662 894707 525
530737 58923 470
708933 708598 349
905937 112136 525
604401 532600 452
966560 575859 525
65198 810839 509
500641 110781 449
195543 288204 443
163227 219961 386
61347 326138 443
984935 974827 427
413847 834049 509
529761 35713 470
355796 110943 443
774343 310832 509
450614 154548 449
863840 813420 525
936010 414159 525
388873 148825 443
771004 538634 509
723476 591681 509
218891 402398 443
265762 897818 525
548560 580022 421
131017 836445 509
222758 483886 449
961191 925157 507
634211 579632 509
35271 3667 311
49200 450543 449
791762 91742 509
923046 994712 507
207534 442601 449
163087 707769 509
216519 825156 509
232137 829170 509
497291 846763 525
209020 111467 383
510277 562720 470
52682 109677 354
623383 709597 509
352497 181844 443
529068 646518 509
789770 842037 525
926411 491865 525
384086 713505 509
618460 2420 470
353023 92393 443
758176 457805 509
74873 51379 340
965543 185127 525
211426 87765 383
433906 387079 449
521475 552021 452
945366 621284 525
275596 480478 449
923087 619547 525
468899 999789 525
262591 132673 443
220798 170996 386
704654 139901 509
849526 997470 507
939167 71535 525
113965 333701 443
462325 659176 509
26502 600843 470
448780 650044 509
458029 540137 470
545879 900190 525
479809 716745 509
548892 295961 470
16819 124272 354
374131 543926 470
923324 34149 525
611109 116505 470
33823 184282 383
205412 543903 470
91107 507797 449
500707 802478 509
708097 865412 525
951315 765550 525
681234 663917 442
306049 554654 470
40582 818429 509
959497 157632 525
195441 247547 443
468719 864486 525
414143 978206 525
941320 912742 507
662857 981010 525
115115 231157 443
520576 56969 470
470113 323909 449
486122 453067 444
640315 146991 509
497891 396733 449
725819 294333 509
898150 408270 525
844972 933276 476
391143 75462 443
411843 707297 509
767840 956058 525
176034 258517 443
300083 411484 449
19841 113272 354
742999 469127 509
872067 421160 525
826928 260690 509
868264 441260 525
968771 190592 525
63961 728801 509
687515 751054 504
590427 691389 509
869846 819491 525
131797 555937 470
599137 348995 470
997871 815815 525
734731 594148 509
868666 912262 476
808320 402122 509
494825 244937 449
90362 642927 509
252208 603569 470
871843 552893 525
469530 765971 509
105350 621923 470
874664 317256 525
554275 667708 509
338209 710917 509
510128 909101 525
332219 214503 443
955303 175980 525
167470 660938 509
772284 874427 525
124409 861114 525
230146 963711 525
50927 124187 354
515369 995521 525
864387 579093 525
516322 216102 470
665797 894125 525
419452 838358 525
850819 550954 525
930061 853730 476
685290 45341 509
91706 172553 383
302195 258811 407
745638 456824 509
972541 773920 525
645311 740758 504
804336 90283 509
120912 822169 509
731885 539385 509
974945 451711 525
771878 193232 509
982345 547170 525
43244 215246 383
967158 16451 525
974513 911375 507
932793 285614 525
455420 205184 449
133895 297246 443
428772 382804 449
295342 569645 470
564063 731904 509
407463 888761 525
206129 133431 383
656468 342503 509
750101 755691 424
85215 700996 509
958203 747404 525
521818 596543 452
504417 229691 449
162235 563516 470
