680118 919707 525
358544 646990 509
990817 750303 525
377340 843081 525
940690 747736 525
370175 597651 470
825659 733338 468
622690 440718 470
89799 218406 386
630280 663395 429
102632 332742 443
604592 377002 470
352427 641460 509
59120 318390 443
517404 372137 470
679980 697703 442
169152 444212 449
990464 906300 507
44253 19310 324
520081 828757 509
267866 835272 509
165149 41379 383
910645 162521 525
723160 318188 509
441220 67204 449
469048 407024 449
357938 590205 470
103090 148889 375
628640 719993 504
302560 612043 470
124667 996722 525
507330 571204 470
759184 431962 509
943850 659643 525
291650 595116 470
994137 294018 525
268159 324648 407
866143 155103 525
112806 183278 383
229615 973864 525
585024 415080 470
765263 596835 509
540475 316753 470
782777 135503 509
9435 908809 525
830598 192537 509
421330 838664 525
727815 992150 525
683870 831946 504
367297 216976 443
149006 682750 509
525575 473160 470
978976 985251 427
871072 470716 525
636867 407779 509
358256 756204 509
197238 683072 509
566604 910328 525
853416 257309 525
626961 621101 509
506858 975870 525
36593 621184 470
713051 581411 509
990278 420126 525
898229 771335 525
326986 113335 443
691802 133855 509
631857 556029 509
262042 419942 449
778290 385908 509
763942 365587 509
972189 928695 507
509068 517784 470
39951 798686 509
464027 309699 449
824476 863133 525
682134 636682 442
533578 180077 470
244588 418844 449
17061 586354 470
438687 152957 449
292669 570439 470
858124 832314 525
230409 342965 443
988818 556641 525
477644 667464 509
640609 836613 504
410523 53321 449
712753 424291 509
260500 617053 470
921734 308888 525
53738 342589 443
146697 668401 509
188538 699725 509
924335 314064 525
453898 550252 470
483260 834152 509
85559 124137 354
777953 666171 504
558668 956019 525
584872 256011 470
976603 992490 427
50820 203494 383
261790 364571 441
101240 634660 509
226912 538924 470
100881 320800 443
199290 21549 383
21631 470069 449
864431 693270 525
964773 766387 525
592608 558818 434
899122 84997 525
83390 15532 351
990415 48050 525
419381 805231 509
571492 53247 470
987008 956435 458
20673 846660 525
487045 341430 449
724126 880285 525
848431 5620 525
828222 68492 509
826284 419538 509
751969 71607 509
302174 109327 443
908076 596928 525
236309 246121 368
817128 585652 509
813656 894703 525
323709 877926 525
353065 694484 509
717880 158802 509
500582 891962 525
764103 285972 509
803548 344541 509
439236 736812 509
468320 510771 426
907014 430949 525
336539 854192 525
97154 161269 383
695745 343129 509
403908 300715 441
527616 730635 509
873982 772676 525
871657 773040 525
120999 215033 383
805945 252030 509
578599 145775 470
842666 495361 525
325249 655355 509
902819 697934 525
377752 769396 509
263757 37812 443
636056 160243 509
421152 435406 418
616291 220111 470
983162 535150 525
461899 120107 449
578660 564937 390
887525 753497 525
2779 36979 324
309931 76042 443
874883 37407 525
172248 773968 509
421731 757324 509
519101 198334 470
460602 532428 470
539705 626732 509
827143 716446 468
520858 62968 470
642455 699978 442
329594 549593 470
46885 665182 509
548459 629613 509
392028 546193 470
50759 751835 509
149959 457795 449
62757 943606 525
451400 289438 449
719197 572738 509
549370 56217 470
496039 517041 470
23430 452684 449
974771 928989 507
646160 907020 525
500275 238693 449
499666 496652 395
610970 772693 509
548893 87210 470
261557 594175 470
454001 537538 470
21808 578372 470
654572 951961 525
784805 83751 509
255551 659012 509
975627 644819 525
481830 292625 449
191554 971846 525
216945 181038 386
144156 24933 375
24918 968806 525
143446 908536 525
652749 137743 509
239395 851753 525
146791 237196 443
89229 523217 470
89540 812513 509
422755 109847 449
370565 221370 443
187852 786484 509
626141 56650 470
376320 420951 449
673047 432748 509
835676 813281 450
324014 33386 443
225076 910366 525
122961 536513 470
387514 754424 509
349433 390872 436
995410 949307 458
192593 711964 509
323549 734792 509
712588 205459 509
824052 569847 509
647279 581963 509
377413 198766 443
206761 24666 383
317636 445736 449
882256 898196 445
87372 171245 383
222202 604548 470
626010 862451 525
157202 955577 525
637719 508672 509
613024 104336 470
793650 392508 509
661312 332038 509
502871 560401 470
363436 406129 436
535787 139498 470
601587 357946 470
555503 868511 525
569963 352791 470
9848 440343 449
561898 784425 509
418824 830522 509
838556 42310 525
964045 312941 525
889588 153063 525
